<mxfile host="app.diagrams.net" modified="2023-07-10T11:44:25.899Z" agent="Mozilla/5.0 (Windows NT 10.0; Win64; x64) AppleWebKit/537.36 (KHTML, like Gecko) Chrome/114.0.0.0 Safari/537.36" etag="-fM8TKOtnPCu3cLdYzYG" version="21.6.1" type="device">
  <diagram name="Page-1" id="Gj9Nee60UAnr4-OuD0p-">
    <mxGraphModel dx="5168" dy="2196" grid="1" gridSize="10" guides="1" tooltips="1" connect="1" arrows="1" fold="1" page="1" pageScale="1" pageWidth="850" pageHeight="1100" math="0" shadow="0">
      <root>
        <mxCell id="0" />
        <mxCell id="1" parent="0" />
        <mxCell id="mFvan0nChl_8NJyv9x9u-15" value="Window Title" style="strokeWidth=1;shadow=0;dashed=0;align=center;html=1;shape=mxgraph.mockup.containers.window;align=left;verticalAlign=top;spacingLeft=8;strokeColor2=#008cff;strokeColor3=#c4c4c4;fontColor=#666666;mainText=;fontSize=17;labelBackgroundColor=none;whiteSpace=wrap;" vertex="1" parent="1">
          <mxGeometry x="-830" y="19" width="820" height="540" as="geometry" />
        </mxCell>
        <mxCell id="mFvan0nChl_8NJyv9x9u-19" value="Username" style="rounded=1;arcSize=9;align=left;spacingLeft=5;strokeColor=#4C9AFF;html=1;strokeWidth=2;fontSize=12" vertex="1" parent="1">
          <mxGeometry x="-362.5" y="338" width="290" height="33" as="geometry" />
        </mxCell>
        <mxCell id="mFvan0nChl_8NJyv9x9u-21" value="Password" style="rounded=1;arcSize=9;align=left;spacingLeft=5;strokeColor=#4C9AFF;html=1;strokeWidth=2;fontSize=12" vertex="1" parent="1">
          <mxGeometry x="-362.5" y="398" width="290" height="33" as="geometry" />
        </mxCell>
        <mxCell id="mFvan0nChl_8NJyv9x9u-25" value="&lt;font style=&quot;font-size: 15px;&quot;&gt;Sign Up&lt;/font&gt;" style="rounded=1;html=1;shadow=0;dashed=0;whiteSpace=wrap;fontSize=10;fillColor=#E6E6E6;align=center;strokeColor=#E6E6E6;fontColor=#333333;" vertex="1" parent="1">
          <mxGeometry x="-286.5" y="453" width="137" height="30" as="geometry" />
        </mxCell>
        <mxCell id="mFvan0nChl_8NJyv9x9u-26" value="Last Name" style="rounded=1;arcSize=9;align=left;spacingLeft=5;strokeColor=#4C9AFF;html=1;strokeWidth=2;fontSize=12" vertex="1" parent="1">
          <mxGeometry x="-363" y="278" width="290" height="33" as="geometry" />
        </mxCell>
        <mxCell id="mFvan0nChl_8NJyv9x9u-27" value="First Name" style="rounded=1;arcSize=9;align=left;spacingLeft=5;strokeColor=#4C9AFF;html=1;strokeWidth=2;fontSize=12" vertex="1" parent="1">
          <mxGeometry x="-363" y="218" width="290" height="33" as="geometry" />
        </mxCell>
        <mxCell id="mFvan0nChl_8NJyv9x9u-31" value="&lt;font style=&quot;font-size: 32px;&quot;&gt;Register&lt;/font&gt;" style="text;html=1;strokeColor=none;fillColor=none;align=center;verticalAlign=middle;whiteSpace=wrap;rounded=0;" vertex="1" parent="1">
          <mxGeometry x="-247.5" y="148" width="60" height="30" as="geometry" />
        </mxCell>
        <mxCell id="mFvan0nChl_8NJyv9x9u-33" value="&lt;font style=&quot;font-size: 15px;&quot;&gt;Already have an account?&lt;/font&gt;" style="text;html=1;strokeColor=none;fillColor=none;align=center;verticalAlign=middle;whiteSpace=wrap;rounded=0;" vertex="1" parent="1">
          <mxGeometry x="-392.5" y="498" width="350" height="30" as="geometry" />
        </mxCell>
        <mxCell id="mFvan0nChl_8NJyv9x9u-36" value="" style="rounded=1;whiteSpace=wrap;html=1;" vertex="1" parent="1">
          <mxGeometry x="-710" y="1170" width="540" height="870" as="geometry" />
        </mxCell>
        <mxCell id="mFvan0nChl_8NJyv9x9u-40" value="" style="rounded=0;whiteSpace=wrap;html=1;" vertex="1" parent="1">
          <mxGeometry x="-830" y="48" width="820" height="40" as="geometry" />
        </mxCell>
        <mxCell id="mFvan0nChl_8NJyv9x9u-41" value="&lt;font style=&quot;font-size: 15px;&quot;&gt;Logo&lt;/font&gt;" style="text;html=1;strokeColor=none;fillColor=none;align=center;verticalAlign=middle;whiteSpace=wrap;rounded=0;" vertex="1" parent="1">
          <mxGeometry x="-830" y="53" width="72.5" height="30" as="geometry" />
        </mxCell>
        <mxCell id="mFvan0nChl_8NJyv9x9u-42" value="&lt;font style=&quot;font-size: 15px;&quot;&gt;Link 1&lt;/font&gt;" style="text;html=1;strokeColor=none;fillColor=none;align=center;verticalAlign=middle;whiteSpace=wrap;rounded=0;" vertex="1" parent="1">
          <mxGeometry x="-115" y="53" width="72.5" height="30" as="geometry" />
        </mxCell>
        <mxCell id="mFvan0nChl_8NJyv9x9u-43" value="&lt;font style=&quot;font-size: 15px;&quot;&gt;Link 2&lt;/font&gt;" style="text;html=1;strokeColor=none;fillColor=none;align=center;verticalAlign=middle;whiteSpace=wrap;rounded=0;" vertex="1" parent="1">
          <mxGeometry x="-190" y="53" width="72.5" height="30" as="geometry" />
        </mxCell>
        <mxCell id="mFvan0nChl_8NJyv9x9u-44" value="&lt;font style=&quot;font-size: 15px;&quot;&gt;Link 3&lt;/font&gt;" style="text;html=1;strokeColor=none;fillColor=none;align=center;verticalAlign=middle;whiteSpace=wrap;rounded=0;" vertex="1" parent="1">
          <mxGeometry x="-280" y="53" width="72.5" height="30" as="geometry" />
        </mxCell>
        <mxCell id="mFvan0nChl_8NJyv9x9u-68" value="Username" style="rounded=1;arcSize=9;align=left;spacingLeft=5;strokeColor=#4C9AFF;html=1;strokeWidth=2;fontSize=12" vertex="1" parent="1">
          <mxGeometry x="-585" y="1560" width="290" height="33" as="geometry" />
        </mxCell>
        <mxCell id="mFvan0nChl_8NJyv9x9u-69" value="Password" style="rounded=1;arcSize=9;align=left;spacingLeft=5;strokeColor=#4C9AFF;html=1;strokeWidth=2;fontSize=12" vertex="1" parent="1">
          <mxGeometry x="-585" y="1620" width="290" height="33" as="geometry" />
        </mxCell>
        <mxCell id="mFvan0nChl_8NJyv9x9u-70" value="&lt;font style=&quot;font-size: 15px;&quot;&gt;Sign Up&lt;/font&gt;" style="rounded=1;html=1;shadow=0;dashed=0;whiteSpace=wrap;fontSize=10;fillColor=#E6E6E6;align=center;strokeColor=#E6E6E6;fontColor=#333333;" vertex="1" parent="1">
          <mxGeometry x="-509" y="1675" width="137" height="30" as="geometry" />
        </mxCell>
        <mxCell id="mFvan0nChl_8NJyv9x9u-71" value="Last Name" style="rounded=1;arcSize=9;align=left;spacingLeft=5;strokeColor=#4C9AFF;html=1;strokeWidth=2;fontSize=12" vertex="1" parent="1">
          <mxGeometry x="-585.5" y="1500" width="290" height="33" as="geometry" />
        </mxCell>
        <mxCell id="mFvan0nChl_8NJyv9x9u-72" value="First Name" style="rounded=1;arcSize=9;align=left;spacingLeft=5;strokeColor=#4C9AFF;html=1;strokeWidth=2;fontSize=12" vertex="1" parent="1">
          <mxGeometry x="-585.5" y="1440" width="290" height="33" as="geometry" />
        </mxCell>
        <mxCell id="mFvan0nChl_8NJyv9x9u-73" value="&lt;font style=&quot;font-size: 32px;&quot;&gt;Register&lt;/font&gt;" style="text;html=1;strokeColor=none;fillColor=none;align=center;verticalAlign=middle;whiteSpace=wrap;rounded=0;" vertex="1" parent="1">
          <mxGeometry x="-470" y="1370" width="60" height="30" as="geometry" />
        </mxCell>
        <mxCell id="mFvan0nChl_8NJyv9x9u-74" value="&lt;font style=&quot;font-size: 15px;&quot;&gt;Already have an account?&lt;/font&gt;" style="text;html=1;strokeColor=none;fillColor=none;align=center;verticalAlign=middle;whiteSpace=wrap;rounded=0;" vertex="1" parent="1">
          <mxGeometry x="-615" y="1720" width="350" height="30" as="geometry" />
        </mxCell>
        <mxCell id="mFvan0nChl_8NJyv9x9u-82" value="" style="verticalLabelPosition=bottom;shadow=0;dashed=0;align=center;html=1;verticalAlign=top;strokeWidth=1;shape=mxgraph.mockup.markup.line;strokeColor=#999999;" vertex="1" parent="1">
          <mxGeometry x="-710" y="1288" width="540" height="20" as="geometry" />
        </mxCell>
        <mxCell id="mFvan0nChl_8NJyv9x9u-90" value="" style="verticalLabelPosition=bottom;shadow=0;dashed=0;align=center;html=1;verticalAlign=top;strokeWidth=1;shape=mxgraph.mockup.markup.line;strokeColor=#999999;" vertex="1" parent="1">
          <mxGeometry x="-710.5" y="1230" width="540" height="20" as="geometry" />
        </mxCell>
        <mxCell id="mFvan0nChl_8NJyv9x9u-95" value="" style="line;strokeWidth=1;rotatable=0;dashed=0;labelPosition=right;align=left;verticalAlign=middle;spacingTop=0;spacingLeft=6;points=[];portConstraint=eastwest;" vertex="1" parent="1">
          <mxGeometry x="-235.5" y="1250" width="25.5" height="10" as="geometry" />
        </mxCell>
        <mxCell id="mFvan0nChl_8NJyv9x9u-96" value="" style="line;strokeWidth=1;rotatable=0;dashed=0;labelPosition=right;align=left;verticalAlign=middle;spacingTop=0;spacingLeft=6;points=[];portConstraint=eastwest;" vertex="1" parent="1">
          <mxGeometry x="-235.5" y="1260" width="25.5" height="10" as="geometry" />
        </mxCell>
        <mxCell id="mFvan0nChl_8NJyv9x9u-97" value="" style="line;strokeWidth=1;rotatable=0;dashed=0;labelPosition=right;align=left;verticalAlign=middle;spacingTop=0;spacingLeft=6;points=[];portConstraint=eastwest;" vertex="1" parent="1">
          <mxGeometry x="-235.5" y="1270" width="25.5" height="10" as="geometry" />
        </mxCell>
        <mxCell id="mFvan0nChl_8NJyv9x9u-98" value="&lt;font style=&quot;font-size: 32px;&quot;&gt;Logo&lt;/font&gt;" style="text;html=1;strokeColor=none;fillColor=none;align=center;verticalAlign=middle;whiteSpace=wrap;rounded=0;" vertex="1" parent="1">
          <mxGeometry x="-690" y="1252" width="140" height="30" as="geometry" />
        </mxCell>
        <mxCell id="mFvan0nChl_8NJyv9x9u-99" value="" style="strokeWidth=1;shadow=0;dashed=0;align=center;html=1;shape=mxgraph.mockup.containers.browserWindow;rSize=0;strokeColor=#666666;strokeColor2=#008cff;strokeColor3=#c4c4c4;mainText=,;recursiveResize=0;" vertex="1" parent="1">
          <mxGeometry x="10" y="10" width="830" height="560" as="geometry" />
        </mxCell>
        <mxCell id="mFvan0nChl_8NJyv9x9u-100" value="Page 1" style="strokeWidth=1;shadow=0;dashed=0;align=center;html=1;shape=mxgraph.mockup.containers.anchor;fontSize=17;fontColor=#666666;align=left;whiteSpace=wrap;" vertex="1" parent="mFvan0nChl_8NJyv9x9u-99">
          <mxGeometry x="60" y="12" width="110" height="26" as="geometry" />
        </mxCell>
        <mxCell id="mFvan0nChl_8NJyv9x9u-101" value="https://www.draw.io" style="strokeWidth=1;shadow=0;dashed=0;align=center;html=1;shape=mxgraph.mockup.containers.anchor;rSize=0;fontSize=17;fontColor=#666666;align=left;" vertex="1" parent="mFvan0nChl_8NJyv9x9u-99">
          <mxGeometry x="130" y="60" width="250" height="26" as="geometry" />
        </mxCell>
        <mxCell id="mFvan0nChl_8NJyv9x9u-103" value="" style="shape=image;html=1;verticalAlign=top;verticalLabelPosition=bottom;labelBackgroundColor=#ffffff;imageAspect=0;aspect=fixed;image=https://cdn1.iconfinder.com/data/icons/seo-and-web-development-6/32/development_picture_illustration_design_image-128.png" vertex="1" parent="mFvan0nChl_8NJyv9x9u-99">
          <mxGeometry x="25" y="153" width="180" height="180" as="geometry" />
        </mxCell>
        <mxCell id="mFvan0nChl_8NJyv9x9u-108" value="&lt;font size=&quot;1&quot; style=&quot;&quot;&gt;&lt;b style=&quot;font-size: 22px;&quot;&gt;Product&lt;/b&gt;&lt;/font&gt;" style="text;html=1;strokeColor=none;fillColor=none;align=center;verticalAlign=middle;whiteSpace=wrap;rounded=0;" vertex="1" parent="mFvan0nChl_8NJyv9x9u-99">
          <mxGeometry x="20" y="313" width="120" height="30" as="geometry" />
        </mxCell>
        <mxCell id="mFvan0nChl_8NJyv9x9u-109" value="&lt;font size=&quot;1&quot; style=&quot;&quot;&gt;&lt;b style=&quot;font-size: 22px;&quot;&gt;00&lt;/b&gt;&lt;/font&gt;" style="text;html=1;strokeColor=none;fillColor=none;align=center;verticalAlign=middle;whiteSpace=wrap;rounded=0;" vertex="1" parent="mFvan0nChl_8NJyv9x9u-99">
          <mxGeometry x="112" y="313" width="120" height="30" as="geometry" />
        </mxCell>
        <mxCell id="mFvan0nChl_8NJyv9x9u-110" value="" style="shape=image;html=1;verticalAlign=top;verticalLabelPosition=bottom;labelBackgroundColor=#ffffff;imageAspect=0;aspect=fixed;image=https://cdn1.iconfinder.com/data/icons/seo-and-web-development-6/32/development_picture_illustration_design_image-128.png" vertex="1" parent="mFvan0nChl_8NJyv9x9u-99">
          <mxGeometry x="215" y="153" width="180" height="180" as="geometry" />
        </mxCell>
        <mxCell id="mFvan0nChl_8NJyv9x9u-111" value="&lt;font size=&quot;1&quot; style=&quot;&quot;&gt;&lt;b style=&quot;font-size: 22px;&quot;&gt;Product&lt;/b&gt;&lt;/font&gt;" style="text;html=1;strokeColor=none;fillColor=none;align=center;verticalAlign=middle;whiteSpace=wrap;rounded=0;" vertex="1" parent="mFvan0nChl_8NJyv9x9u-99">
          <mxGeometry x="210" y="313" width="120" height="30" as="geometry" />
        </mxCell>
        <mxCell id="mFvan0nChl_8NJyv9x9u-112" value="&lt;font size=&quot;1&quot; style=&quot;&quot;&gt;&lt;b style=&quot;font-size: 22px;&quot;&gt;00&lt;/b&gt;&lt;/font&gt;" style="text;html=1;strokeColor=none;fillColor=none;align=center;verticalAlign=middle;whiteSpace=wrap;rounded=0;" vertex="1" parent="mFvan0nChl_8NJyv9x9u-99">
          <mxGeometry x="302" y="313" width="120" height="30" as="geometry" />
        </mxCell>
        <mxCell id="mFvan0nChl_8NJyv9x9u-119" value="" style="shape=image;html=1;verticalAlign=top;verticalLabelPosition=bottom;labelBackgroundColor=#ffffff;imageAspect=0;aspect=fixed;image=https://cdn1.iconfinder.com/data/icons/seo-and-web-development-6/32/development_picture_illustration_design_image-128.png" vertex="1" parent="mFvan0nChl_8NJyv9x9u-99">
          <mxGeometry x="400" y="153" width="180" height="180" as="geometry" />
        </mxCell>
        <mxCell id="mFvan0nChl_8NJyv9x9u-120" value="&lt;font size=&quot;1&quot; style=&quot;&quot;&gt;&lt;b style=&quot;font-size: 22px;&quot;&gt;Product&lt;/b&gt;&lt;/font&gt;" style="text;html=1;strokeColor=none;fillColor=none;align=center;verticalAlign=middle;whiteSpace=wrap;rounded=0;" vertex="1" parent="mFvan0nChl_8NJyv9x9u-99">
          <mxGeometry x="395" y="313" width="120" height="30" as="geometry" />
        </mxCell>
        <mxCell id="mFvan0nChl_8NJyv9x9u-121" value="&lt;font size=&quot;1&quot; style=&quot;&quot;&gt;&lt;b style=&quot;font-size: 22px;&quot;&gt;00&lt;/b&gt;&lt;/font&gt;" style="text;html=1;strokeColor=none;fillColor=none;align=center;verticalAlign=middle;whiteSpace=wrap;rounded=0;" vertex="1" parent="mFvan0nChl_8NJyv9x9u-99">
          <mxGeometry x="487" y="313" width="120" height="30" as="geometry" />
        </mxCell>
        <mxCell id="mFvan0nChl_8NJyv9x9u-122" value="" style="shape=image;html=1;verticalAlign=top;verticalLabelPosition=bottom;labelBackgroundColor=#ffffff;imageAspect=0;aspect=fixed;image=https://cdn1.iconfinder.com/data/icons/seo-and-web-development-6/32/development_picture_illustration_design_image-128.png" vertex="1" parent="mFvan0nChl_8NJyv9x9u-99">
          <mxGeometry x="590" y="153" width="180" height="180" as="geometry" />
        </mxCell>
        <mxCell id="mFvan0nChl_8NJyv9x9u-123" value="&lt;font size=&quot;1&quot; style=&quot;&quot;&gt;&lt;b style=&quot;font-size: 22px;&quot;&gt;Product&lt;/b&gt;&lt;/font&gt;" style="text;html=1;strokeColor=none;fillColor=none;align=center;verticalAlign=middle;whiteSpace=wrap;rounded=0;" vertex="1" parent="mFvan0nChl_8NJyv9x9u-99">
          <mxGeometry x="585" y="313" width="120" height="30" as="geometry" />
        </mxCell>
        <mxCell id="mFvan0nChl_8NJyv9x9u-124" value="&lt;font size=&quot;1&quot; style=&quot;&quot;&gt;&lt;b style=&quot;font-size: 22px;&quot;&gt;00&lt;/b&gt;&lt;/font&gt;" style="text;html=1;strokeColor=none;fillColor=none;align=center;verticalAlign=middle;whiteSpace=wrap;rounded=0;" vertex="1" parent="mFvan0nChl_8NJyv9x9u-99">
          <mxGeometry x="677" y="313" width="120" height="30" as="geometry" />
        </mxCell>
        <mxCell id="mFvan0nChl_8NJyv9x9u-125" value="" style="shape=image;html=1;verticalAlign=top;verticalLabelPosition=bottom;labelBackgroundColor=#ffffff;imageAspect=0;aspect=fixed;image=https://cdn1.iconfinder.com/data/icons/seo-and-web-development-6/32/development_picture_illustration_design_image-128.png" vertex="1" parent="mFvan0nChl_8NJyv9x9u-99">
          <mxGeometry x="25" y="343" width="180" height="180" as="geometry" />
        </mxCell>
        <mxCell id="mFvan0nChl_8NJyv9x9u-126" value="&lt;font size=&quot;1&quot; style=&quot;&quot;&gt;&lt;b style=&quot;font-size: 22px;&quot;&gt;Product&lt;/b&gt;&lt;/font&gt;" style="text;html=1;strokeColor=none;fillColor=none;align=center;verticalAlign=middle;whiteSpace=wrap;rounded=0;" vertex="1" parent="mFvan0nChl_8NJyv9x9u-99">
          <mxGeometry x="20" y="503" width="120" height="30" as="geometry" />
        </mxCell>
        <mxCell id="mFvan0nChl_8NJyv9x9u-127" value="&lt;font size=&quot;1&quot; style=&quot;&quot;&gt;&lt;b style=&quot;font-size: 22px;&quot;&gt;00&lt;/b&gt;&lt;/font&gt;" style="text;html=1;strokeColor=none;fillColor=none;align=center;verticalAlign=middle;whiteSpace=wrap;rounded=0;" vertex="1" parent="mFvan0nChl_8NJyv9x9u-99">
          <mxGeometry x="112" y="503" width="120" height="30" as="geometry" />
        </mxCell>
        <mxCell id="mFvan0nChl_8NJyv9x9u-128" value="" style="shape=image;html=1;verticalAlign=top;verticalLabelPosition=bottom;labelBackgroundColor=#ffffff;imageAspect=0;aspect=fixed;image=https://cdn1.iconfinder.com/data/icons/seo-and-web-development-6/32/development_picture_illustration_design_image-128.png" vertex="1" parent="mFvan0nChl_8NJyv9x9u-99">
          <mxGeometry x="215" y="343" width="180" height="180" as="geometry" />
        </mxCell>
        <mxCell id="mFvan0nChl_8NJyv9x9u-129" value="&lt;font size=&quot;1&quot; style=&quot;&quot;&gt;&lt;b style=&quot;font-size: 22px;&quot;&gt;Product&lt;/b&gt;&lt;/font&gt;" style="text;html=1;strokeColor=none;fillColor=none;align=center;verticalAlign=middle;whiteSpace=wrap;rounded=0;" vertex="1" parent="mFvan0nChl_8NJyv9x9u-99">
          <mxGeometry x="210" y="503" width="120" height="30" as="geometry" />
        </mxCell>
        <mxCell id="mFvan0nChl_8NJyv9x9u-130" value="" style="shape=image;html=1;verticalAlign=top;verticalLabelPosition=bottom;labelBackgroundColor=#ffffff;imageAspect=0;aspect=fixed;image=https://cdn1.iconfinder.com/data/icons/seo-and-web-development-6/32/development_picture_illustration_design_image-128.png" vertex="1" parent="mFvan0nChl_8NJyv9x9u-99">
          <mxGeometry x="400" y="343" width="180" height="180" as="geometry" />
        </mxCell>
        <mxCell id="mFvan0nChl_8NJyv9x9u-131" value="&lt;font size=&quot;1&quot; style=&quot;&quot;&gt;&lt;b style=&quot;font-size: 22px;&quot;&gt;Product&lt;/b&gt;&lt;/font&gt;" style="text;html=1;strokeColor=none;fillColor=none;align=center;verticalAlign=middle;whiteSpace=wrap;rounded=0;" vertex="1" parent="mFvan0nChl_8NJyv9x9u-99">
          <mxGeometry x="395" y="503" width="120" height="30" as="geometry" />
        </mxCell>
        <mxCell id="mFvan0nChl_8NJyv9x9u-132" value="&lt;font size=&quot;1&quot; style=&quot;&quot;&gt;&lt;b style=&quot;font-size: 22px;&quot;&gt;00&lt;/b&gt;&lt;/font&gt;" style="text;html=1;strokeColor=none;fillColor=none;align=center;verticalAlign=middle;whiteSpace=wrap;rounded=0;" vertex="1" parent="mFvan0nChl_8NJyv9x9u-99">
          <mxGeometry x="487" y="503" width="120" height="30" as="geometry" />
        </mxCell>
        <mxCell id="mFvan0nChl_8NJyv9x9u-133" value="" style="shape=image;html=1;verticalAlign=top;verticalLabelPosition=bottom;labelBackgroundColor=#ffffff;imageAspect=0;aspect=fixed;image=https://cdn1.iconfinder.com/data/icons/seo-and-web-development-6/32/development_picture_illustration_design_image-128.png" vertex="1" parent="mFvan0nChl_8NJyv9x9u-99">
          <mxGeometry x="590" y="343" width="180" height="180" as="geometry" />
        </mxCell>
        <mxCell id="mFvan0nChl_8NJyv9x9u-134" value="&lt;font size=&quot;1&quot; style=&quot;&quot;&gt;&lt;b style=&quot;font-size: 22px;&quot;&gt;Product&lt;/b&gt;&lt;/font&gt;" style="text;html=1;strokeColor=none;fillColor=none;align=center;verticalAlign=middle;whiteSpace=wrap;rounded=0;" vertex="1" parent="mFvan0nChl_8NJyv9x9u-99">
          <mxGeometry x="585" y="503" width="120" height="30" as="geometry" />
        </mxCell>
        <mxCell id="mFvan0nChl_8NJyv9x9u-135" value="&lt;font size=&quot;1&quot; style=&quot;&quot;&gt;&lt;b style=&quot;font-size: 22px;&quot;&gt;00&lt;/b&gt;&lt;/font&gt;" style="text;html=1;strokeColor=none;fillColor=none;align=center;verticalAlign=middle;whiteSpace=wrap;rounded=0;" vertex="1" parent="mFvan0nChl_8NJyv9x9u-99">
          <mxGeometry x="677" y="503" width="120" height="30" as="geometry" />
        </mxCell>
        <mxCell id="mFvan0nChl_8NJyv9x9u-210" value="&lt;span style=&quot;font-size: 22px;&quot;&gt;&lt;b&gt;Products&lt;/b&gt;&lt;/span&gt;" style="text;html=1;strokeColor=none;fillColor=none;align=center;verticalAlign=middle;whiteSpace=wrap;rounded=0;" vertex="1" parent="mFvan0nChl_8NJyv9x9u-99">
          <mxGeometry x="40" y="127" width="120" height="30" as="geometry" />
        </mxCell>
        <mxCell id="mFvan0nChl_8NJyv9x9u-102" value="" style="shape=image;html=1;verticalAlign=top;verticalLabelPosition=bottom;labelBackgroundColor=#ffffff;imageAspect=0;aspect=fixed;image=https://cdn1.iconfinder.com/data/icons/seo-and-web-development-6/32/development_picture_illustration_design_image-128.png" vertex="1" parent="1">
          <mxGeometry x="-822.5" y="108" width="430" height="430" as="geometry" />
        </mxCell>
        <mxCell id="mFvan0nChl_8NJyv9x9u-136" value="" style="rounded=1;whiteSpace=wrap;html=1;" vertex="1" parent="1">
          <mxGeometry x="155.5" y="1170" width="540" height="870" as="geometry" />
        </mxCell>
        <mxCell id="mFvan0nChl_8NJyv9x9u-144" value="" style="verticalLabelPosition=bottom;shadow=0;dashed=0;align=center;html=1;verticalAlign=top;strokeWidth=1;shape=mxgraph.mockup.markup.line;strokeColor=#999999;" vertex="1" parent="1">
          <mxGeometry x="155.5" y="1288" width="540" height="20" as="geometry" />
        </mxCell>
        <mxCell id="mFvan0nChl_8NJyv9x9u-145" value="" style="verticalLabelPosition=bottom;shadow=0;dashed=0;align=center;html=1;verticalAlign=top;strokeWidth=1;shape=mxgraph.mockup.markup.line;strokeColor=#999999;" vertex="1" parent="1">
          <mxGeometry x="155" y="1230" width="540" height="20" as="geometry" />
        </mxCell>
        <mxCell id="mFvan0nChl_8NJyv9x9u-146" value="" style="line;strokeWidth=1;rotatable=0;dashed=0;labelPosition=right;align=left;verticalAlign=middle;spacingTop=0;spacingLeft=6;points=[];portConstraint=eastwest;" vertex="1" parent="1">
          <mxGeometry x="630" y="1250" width="25.5" height="10" as="geometry" />
        </mxCell>
        <mxCell id="mFvan0nChl_8NJyv9x9u-147" value="" style="line;strokeWidth=1;rotatable=0;dashed=0;labelPosition=right;align=left;verticalAlign=middle;spacingTop=0;spacingLeft=6;points=[];portConstraint=eastwest;" vertex="1" parent="1">
          <mxGeometry x="630" y="1260" width="25.5" height="10" as="geometry" />
        </mxCell>
        <mxCell id="mFvan0nChl_8NJyv9x9u-148" value="" style="line;strokeWidth=1;rotatable=0;dashed=0;labelPosition=right;align=left;verticalAlign=middle;spacingTop=0;spacingLeft=6;points=[];portConstraint=eastwest;" vertex="1" parent="1">
          <mxGeometry x="630" y="1270" width="25.5" height="10" as="geometry" />
        </mxCell>
        <mxCell id="mFvan0nChl_8NJyv9x9u-149" value="&lt;font style=&quot;font-size: 32px;&quot;&gt;Logo&lt;/font&gt;" style="text;html=1;strokeColor=none;fillColor=none;align=center;verticalAlign=middle;whiteSpace=wrap;rounded=0;" vertex="1" parent="1">
          <mxGeometry x="175.5" y="1252" width="140" height="30" as="geometry" />
        </mxCell>
        <mxCell id="mFvan0nChl_8NJyv9x9u-152" value="" style="shape=image;html=1;verticalAlign=top;verticalLabelPosition=bottom;labelBackgroundColor=#ffffff;imageAspect=0;aspect=fixed;image=https://cdn1.iconfinder.com/data/icons/seo-and-web-development-6/32/development_picture_illustration_design_image-128.png" vertex="1" parent="1">
          <mxGeometry x="245" y="1390" width="180" height="180" as="geometry" />
        </mxCell>
        <mxCell id="mFvan0nChl_8NJyv9x9u-153" value="&lt;font size=&quot;1&quot; style=&quot;&quot;&gt;&lt;b style=&quot;font-size: 22px;&quot;&gt;Product&lt;/b&gt;&lt;/font&gt;" style="text;html=1;strokeColor=none;fillColor=none;align=center;verticalAlign=middle;whiteSpace=wrap;rounded=0;" vertex="1" parent="1">
          <mxGeometry x="240" y="1550" width="120" height="30" as="geometry" />
        </mxCell>
        <mxCell id="mFvan0nChl_8NJyv9x9u-154" value="&lt;font size=&quot;1&quot; style=&quot;&quot;&gt;&lt;b style=&quot;font-size: 22px;&quot;&gt;00&lt;/b&gt;&lt;/font&gt;" style="text;html=1;strokeColor=none;fillColor=none;align=center;verticalAlign=middle;whiteSpace=wrap;rounded=0;" vertex="1" parent="1">
          <mxGeometry x="332" y="1550" width="120" height="30" as="geometry" />
        </mxCell>
        <mxCell id="mFvan0nChl_8NJyv9x9u-155" value="" style="shape=image;html=1;verticalAlign=top;verticalLabelPosition=bottom;labelBackgroundColor=#ffffff;imageAspect=0;aspect=fixed;image=https://cdn1.iconfinder.com/data/icons/seo-and-web-development-6/32/development_picture_illustration_design_image-128.png" vertex="1" parent="1">
          <mxGeometry x="435" y="1390" width="180" height="180" as="geometry" />
        </mxCell>
        <mxCell id="mFvan0nChl_8NJyv9x9u-156" value="&lt;font size=&quot;1&quot; style=&quot;&quot;&gt;&lt;b style=&quot;font-size: 22px;&quot;&gt;Product&lt;/b&gt;&lt;/font&gt;" style="text;html=1;strokeColor=none;fillColor=none;align=center;verticalAlign=middle;whiteSpace=wrap;rounded=0;" vertex="1" parent="1">
          <mxGeometry x="430" y="1550" width="120" height="30" as="geometry" />
        </mxCell>
        <mxCell id="mFvan0nChl_8NJyv9x9u-157" value="&lt;font size=&quot;1&quot; style=&quot;&quot;&gt;&lt;b style=&quot;font-size: 22px;&quot;&gt;00&lt;/b&gt;&lt;/font&gt;" style="text;html=1;strokeColor=none;fillColor=none;align=center;verticalAlign=middle;whiteSpace=wrap;rounded=0;" vertex="1" parent="1">
          <mxGeometry x="522" y="1550" width="120" height="30" as="geometry" />
        </mxCell>
        <mxCell id="mFvan0nChl_8NJyv9x9u-211" value="&lt;span style=&quot;font-size: 22px;&quot;&gt;&lt;b&gt;Products&lt;/b&gt;&lt;/span&gt;" style="text;html=1;strokeColor=none;fillColor=none;align=center;verticalAlign=middle;whiteSpace=wrap;rounded=0;" vertex="1" parent="1">
          <mxGeometry x="185.5" y="1340" width="120" height="30" as="geometry" />
        </mxCell>
        <mxCell id="mFvan0nChl_8NJyv9x9u-212" value="" style="shape=image;html=1;verticalAlign=top;verticalLabelPosition=bottom;labelBackgroundColor=#ffffff;imageAspect=0;aspect=fixed;image=https://cdn1.iconfinder.com/data/icons/seo-and-web-development-6/32/development_picture_illustration_design_image-128.png" vertex="1" parent="1">
          <mxGeometry x="245" y="1580" width="180" height="180" as="geometry" />
        </mxCell>
        <mxCell id="mFvan0nChl_8NJyv9x9u-213" value="&lt;font size=&quot;1&quot; style=&quot;&quot;&gt;&lt;b style=&quot;font-size: 22px;&quot;&gt;Product&lt;/b&gt;&lt;/font&gt;" style="text;html=1;strokeColor=none;fillColor=none;align=center;verticalAlign=middle;whiteSpace=wrap;rounded=0;" vertex="1" parent="1">
          <mxGeometry x="240" y="1740" width="120" height="30" as="geometry" />
        </mxCell>
        <mxCell id="mFvan0nChl_8NJyv9x9u-214" value="&lt;font size=&quot;1&quot; style=&quot;&quot;&gt;&lt;b style=&quot;font-size: 22px;&quot;&gt;00&lt;/b&gt;&lt;/font&gt;" style="text;html=1;strokeColor=none;fillColor=none;align=center;verticalAlign=middle;whiteSpace=wrap;rounded=0;" vertex="1" parent="1">
          <mxGeometry x="332" y="1740" width="120" height="30" as="geometry" />
        </mxCell>
        <mxCell id="mFvan0nChl_8NJyv9x9u-215" value="" style="shape=image;html=1;verticalAlign=top;verticalLabelPosition=bottom;labelBackgroundColor=#ffffff;imageAspect=0;aspect=fixed;image=https://cdn1.iconfinder.com/data/icons/seo-and-web-development-6/32/development_picture_illustration_design_image-128.png" vertex="1" parent="1">
          <mxGeometry x="435" y="1580" width="180" height="180" as="geometry" />
        </mxCell>
        <mxCell id="mFvan0nChl_8NJyv9x9u-216" value="&lt;font size=&quot;1&quot; style=&quot;&quot;&gt;&lt;b style=&quot;font-size: 22px;&quot;&gt;Product&lt;/b&gt;&lt;/font&gt;" style="text;html=1;strokeColor=none;fillColor=none;align=center;verticalAlign=middle;whiteSpace=wrap;rounded=0;" vertex="1" parent="1">
          <mxGeometry x="430" y="1740" width="120" height="30" as="geometry" />
        </mxCell>
        <mxCell id="mFvan0nChl_8NJyv9x9u-217" value="&lt;font size=&quot;1&quot; style=&quot;&quot;&gt;&lt;b style=&quot;font-size: 22px;&quot;&gt;00&lt;/b&gt;&lt;/font&gt;" style="text;html=1;strokeColor=none;fillColor=none;align=center;verticalAlign=middle;whiteSpace=wrap;rounded=0;" vertex="1" parent="1">
          <mxGeometry x="522" y="1740" width="120" height="30" as="geometry" />
        </mxCell>
        <mxCell id="mFvan0nChl_8NJyv9x9u-218" value="" style="shape=image;html=1;verticalAlign=top;verticalLabelPosition=bottom;labelBackgroundColor=#ffffff;imageAspect=0;aspect=fixed;image=https://cdn1.iconfinder.com/data/icons/seo-and-web-development-6/32/development_picture_illustration_design_image-128.png" vertex="1" parent="1">
          <mxGeometry x="245" y="1760" width="180" height="180" as="geometry" />
        </mxCell>
        <mxCell id="mFvan0nChl_8NJyv9x9u-219" value="&lt;font size=&quot;1&quot; style=&quot;&quot;&gt;&lt;b style=&quot;font-size: 22px;&quot;&gt;Product&lt;/b&gt;&lt;/font&gt;" style="text;html=1;strokeColor=none;fillColor=none;align=center;verticalAlign=middle;whiteSpace=wrap;rounded=0;" vertex="1" parent="1">
          <mxGeometry x="240" y="1920" width="120" height="30" as="geometry" />
        </mxCell>
        <mxCell id="mFvan0nChl_8NJyv9x9u-220" value="&lt;font size=&quot;1&quot; style=&quot;&quot;&gt;&lt;b style=&quot;font-size: 22px;&quot;&gt;00&lt;/b&gt;&lt;/font&gt;" style="text;html=1;strokeColor=none;fillColor=none;align=center;verticalAlign=middle;whiteSpace=wrap;rounded=0;" vertex="1" parent="1">
          <mxGeometry x="332" y="1920" width="120" height="30" as="geometry" />
        </mxCell>
        <mxCell id="mFvan0nChl_8NJyv9x9u-221" value="" style="shape=image;html=1;verticalAlign=top;verticalLabelPosition=bottom;labelBackgroundColor=#ffffff;imageAspect=0;aspect=fixed;image=https://cdn1.iconfinder.com/data/icons/seo-and-web-development-6/32/development_picture_illustration_design_image-128.png" vertex="1" parent="1">
          <mxGeometry x="435" y="1760" width="180" height="180" as="geometry" />
        </mxCell>
        <mxCell id="mFvan0nChl_8NJyv9x9u-222" value="&lt;font size=&quot;1&quot; style=&quot;&quot;&gt;&lt;b style=&quot;font-size: 22px;&quot;&gt;Product&lt;/b&gt;&lt;/font&gt;" style="text;html=1;strokeColor=none;fillColor=none;align=center;verticalAlign=middle;whiteSpace=wrap;rounded=0;" vertex="1" parent="1">
          <mxGeometry x="430" y="1920" width="120" height="30" as="geometry" />
        </mxCell>
        <mxCell id="mFvan0nChl_8NJyv9x9u-223" value="&lt;font size=&quot;1&quot; style=&quot;&quot;&gt;&lt;b style=&quot;font-size: 22px;&quot;&gt;00&lt;/b&gt;&lt;/font&gt;" style="text;html=1;strokeColor=none;fillColor=none;align=center;verticalAlign=middle;whiteSpace=wrap;rounded=0;" vertex="1" parent="1">
          <mxGeometry x="522" y="1920" width="120" height="30" as="geometry" />
        </mxCell>
        <mxCell id="mFvan0nChl_8NJyv9x9u-236" value="Window Title" style="strokeWidth=1;shadow=0;dashed=0;align=center;html=1;shape=mxgraph.mockup.containers.window;align=left;verticalAlign=top;spacingLeft=8;strokeColor2=#008cff;strokeColor3=#c4c4c4;fontColor=#666666;mainText=;fontSize=17;labelBackgroundColor=none;whiteSpace=wrap;" vertex="1" parent="1">
          <mxGeometry x="-1680" y="14" width="810" height="540" as="geometry" />
        </mxCell>
        <mxCell id="mFvan0nChl_8NJyv9x9u-237" value="" style="shape=image;html=1;verticalAlign=top;verticalLabelPosition=bottom;labelBackgroundColor=#ffffff;imageAspect=0;aspect=fixed;image=https://cdn1.iconfinder.com/data/icons/seo-and-web-development-6/32/development_picture_illustration_design_image-128.png" vertex="1" parent="1">
          <mxGeometry x="-1620" y="60" width="335" height="335" as="geometry" />
        </mxCell>
        <mxCell id="mFvan0nChl_8NJyv9x9u-238" value="&lt;font style=&quot;font-size: 32px;&quot;&gt;Product&lt;/font&gt;" style="text;html=1;strokeColor=none;fillColor=none;align=center;verticalAlign=middle;whiteSpace=wrap;rounded=0;" vertex="1" parent="1">
          <mxGeometry x="-1220" y="130" width="60" height="30" as="geometry" />
        </mxCell>
        <mxCell id="mFvan0nChl_8NJyv9x9u-241" value="&lt;font style=&quot;font-size: 20px;&quot;&gt;Brand&lt;/font&gt;" style="text;html=1;strokeColor=none;fillColor=none;align=center;verticalAlign=middle;whiteSpace=wrap;rounded=0;" vertex="1" parent="1">
          <mxGeometry x="-1240" y="160" width="60" height="30" as="geometry" />
        </mxCell>
        <mxCell id="mFvan0nChl_8NJyv9x9u-244" value="&lt;font style=&quot;font-size: 20px;&quot;&gt;Description&lt;/font&gt;" style="text;html=1;strokeColor=none;fillColor=none;align=center;verticalAlign=middle;whiteSpace=wrap;rounded=0;" vertex="1" parent="1">
          <mxGeometry x="-1217" y="190" width="60" height="30" as="geometry" />
        </mxCell>
        <mxCell id="mFvan0nChl_8NJyv9x9u-247" value="&lt;font style=&quot;font-size: 15px;&quot;&gt;Buy Now&lt;/font&gt;" style="rounded=1;html=1;shadow=0;dashed=0;whiteSpace=wrap;fontSize=10;fillColor=#E6E6E6;align=center;strokeColor=#E6E6E6;fontColor=#333333;" vertex="1" parent="1">
          <mxGeometry x="-1240" y="263" width="137" height="30" as="geometry" />
        </mxCell>
        <mxCell id="mFvan0nChl_8NJyv9x9u-263" value="" style="rounded=1;whiteSpace=wrap;html=1;" vertex="1" parent="1">
          <mxGeometry x="-1544.5" y="1180" width="540" height="870" as="geometry" />
        </mxCell>
        <mxCell id="mFvan0nChl_8NJyv9x9u-264" value="" style="verticalLabelPosition=bottom;shadow=0;dashed=0;align=center;html=1;verticalAlign=top;strokeWidth=1;shape=mxgraph.mockup.markup.line;strokeColor=#999999;" vertex="1" parent="1">
          <mxGeometry x="-1544.5" y="1298" width="540" height="20" as="geometry" />
        </mxCell>
        <mxCell id="mFvan0nChl_8NJyv9x9u-265" value="" style="verticalLabelPosition=bottom;shadow=0;dashed=0;align=center;html=1;verticalAlign=top;strokeWidth=1;shape=mxgraph.mockup.markup.line;strokeColor=#999999;" vertex="1" parent="1">
          <mxGeometry x="-1545" y="1240" width="540" height="20" as="geometry" />
        </mxCell>
        <mxCell id="mFvan0nChl_8NJyv9x9u-266" value="" style="line;strokeWidth=1;rotatable=0;dashed=0;labelPosition=right;align=left;verticalAlign=middle;spacingTop=0;spacingLeft=6;points=[];portConstraint=eastwest;" vertex="1" parent="1">
          <mxGeometry x="-1070" y="1260" width="25.5" height="10" as="geometry" />
        </mxCell>
        <mxCell id="mFvan0nChl_8NJyv9x9u-267" value="" style="line;strokeWidth=1;rotatable=0;dashed=0;labelPosition=right;align=left;verticalAlign=middle;spacingTop=0;spacingLeft=6;points=[];portConstraint=eastwest;" vertex="1" parent="1">
          <mxGeometry x="-1070" y="1270" width="25.5" height="10" as="geometry" />
        </mxCell>
        <mxCell id="mFvan0nChl_8NJyv9x9u-268" value="" style="line;strokeWidth=1;rotatable=0;dashed=0;labelPosition=right;align=left;verticalAlign=middle;spacingTop=0;spacingLeft=6;points=[];portConstraint=eastwest;" vertex="1" parent="1">
          <mxGeometry x="-1070" y="1280" width="25.5" height="10" as="geometry" />
        </mxCell>
        <mxCell id="mFvan0nChl_8NJyv9x9u-269" value="&lt;font style=&quot;font-size: 32px;&quot;&gt;Logo&lt;/font&gt;" style="text;html=1;strokeColor=none;fillColor=none;align=center;verticalAlign=middle;whiteSpace=wrap;rounded=0;" vertex="1" parent="1">
          <mxGeometry x="-1524.5" y="1262" width="140" height="30" as="geometry" />
        </mxCell>
        <mxCell id="mFvan0nChl_8NJyv9x9u-270" value="" style="shape=image;html=1;verticalAlign=top;verticalLabelPosition=bottom;labelBackgroundColor=#ffffff;imageAspect=0;aspect=fixed;image=https://cdn1.iconfinder.com/data/icons/seo-and-web-development-6/32/development_picture_illustration_design_image-128.png" vertex="1" parent="1">
          <mxGeometry x="-1450" y="1360" width="370" height="370" as="geometry" />
        </mxCell>
        <mxCell id="mFvan0nChl_8NJyv9x9u-276" value="&lt;span style=&quot;font-size: 22px;&quot;&gt;&lt;b&gt;Products&lt;/b&gt;&lt;/span&gt;" style="text;html=1;strokeColor=none;fillColor=none;align=center;verticalAlign=middle;whiteSpace=wrap;rounded=0;" vertex="1" parent="1">
          <mxGeometry x="-1514.5" y="1350" width="120" height="30" as="geometry" />
        </mxCell>
        <mxCell id="mFvan0nChl_8NJyv9x9u-289" value="" style="rounded=0;whiteSpace=wrap;html=1;" vertex="1" parent="1">
          <mxGeometry x="-1680" y="45" width="810" height="40" as="geometry" />
        </mxCell>
        <mxCell id="mFvan0nChl_8NJyv9x9u-290" value="&lt;font style=&quot;font-size: 15px;&quot;&gt;Logo&lt;/font&gt;" style="text;html=1;strokeColor=none;fillColor=none;align=center;verticalAlign=middle;whiteSpace=wrap;rounded=0;" vertex="1" parent="1">
          <mxGeometry x="-1670" y="50" width="72.5" height="30" as="geometry" />
        </mxCell>
        <mxCell id="mFvan0nChl_8NJyv9x9u-291" value="&lt;font style=&quot;font-size: 15px;&quot;&gt;Link 1&lt;/font&gt;" style="text;html=1;strokeColor=none;fillColor=none;align=center;verticalAlign=middle;whiteSpace=wrap;rounded=0;" vertex="1" parent="1">
          <mxGeometry x="-955" y="50" width="72.5" height="30" as="geometry" />
        </mxCell>
        <mxCell id="mFvan0nChl_8NJyv9x9u-292" value="&lt;font style=&quot;font-size: 15px;&quot;&gt;Link 2&lt;/font&gt;" style="text;html=1;strokeColor=none;fillColor=none;align=center;verticalAlign=middle;whiteSpace=wrap;rounded=0;" vertex="1" parent="1">
          <mxGeometry x="-1030" y="50" width="72.5" height="30" as="geometry" />
        </mxCell>
        <mxCell id="mFvan0nChl_8NJyv9x9u-293" value="&lt;font style=&quot;font-size: 15px;&quot;&gt;Link 3&lt;/font&gt;" style="text;html=1;strokeColor=none;fillColor=none;align=center;verticalAlign=middle;whiteSpace=wrap;rounded=0;" vertex="1" parent="1">
          <mxGeometry x="-1120" y="50" width="72.5" height="30" as="geometry" />
        </mxCell>
        <mxCell id="mFvan0nChl_8NJyv9x9u-294" value="&lt;font style=&quot;font-size: 32px;&quot;&gt;Product&lt;/font&gt;" style="text;html=1;strokeColor=none;fillColor=none;align=center;verticalAlign=middle;whiteSpace=wrap;rounded=0;" vertex="1" parent="1">
          <mxGeometry x="-1410" y="1705" width="60" height="30" as="geometry" />
        </mxCell>
        <mxCell id="mFvan0nChl_8NJyv9x9u-295" value="&lt;font style=&quot;font-size: 20px;&quot;&gt;Brand&lt;/font&gt;" style="text;html=1;strokeColor=none;fillColor=none;align=center;verticalAlign=middle;whiteSpace=wrap;rounded=0;" vertex="1" parent="1">
          <mxGeometry x="-1430" y="1735" width="60" height="30" as="geometry" />
        </mxCell>
        <mxCell id="mFvan0nChl_8NJyv9x9u-296" value="&lt;font style=&quot;font-size: 20px;&quot;&gt;Description&lt;/font&gt;" style="text;html=1;strokeColor=none;fillColor=none;align=center;verticalAlign=middle;whiteSpace=wrap;rounded=0;" vertex="1" parent="1">
          <mxGeometry x="-1407" y="1765" width="60" height="30" as="geometry" />
        </mxCell>
        <mxCell id="mFvan0nChl_8NJyv9x9u-297" value="&lt;font style=&quot;font-size: 15px;&quot;&gt;Buy Now&lt;/font&gt;" style="rounded=1;html=1;shadow=0;dashed=0;whiteSpace=wrap;fontSize=10;fillColor=#E6E6E6;align=center;strokeColor=#E6E6E6;fontColor=#333333;" vertex="1" parent="1">
          <mxGeometry x="-1280" y="1750" width="177" height="40" as="geometry" />
        </mxCell>
        <mxCell id="mFvan0nChl_8NJyv9x9u-299" value="&lt;font style=&quot;font-size: 50px;&quot;&gt;Single Product Page&lt;/font&gt;" style="text;html=1;strokeColor=none;fillColor=none;align=center;verticalAlign=middle;whiteSpace=wrap;rounded=0;" vertex="1" parent="1">
          <mxGeometry x="-1544.5" y="630" width="594.5" height="80" as="geometry" />
        </mxCell>
        <mxCell id="mFvan0nChl_8NJyv9x9u-300" value="&lt;font style=&quot;font-size: 50px;&quot;&gt;Single Product Page&lt;/font&gt;" style="text;html=1;strokeColor=none;fillColor=none;align=center;verticalAlign=middle;whiteSpace=wrap;rounded=0;" vertex="1" parent="1">
          <mxGeometry x="-1571.75" y="2090" width="594.5" height="80" as="geometry" />
        </mxCell>
        <mxCell id="mFvan0nChl_8NJyv9x9u-301" value="&lt;font style=&quot;font-size: 50px;&quot;&gt;Register page&lt;/font&gt;" style="text;html=1;strokeColor=none;fillColor=none;align=center;verticalAlign=middle;whiteSpace=wrap;rounded=0;" vertex="1" parent="1">
          <mxGeometry x="-690" y="630" width="594.5" height="80" as="geometry" />
        </mxCell>
        <mxCell id="mFvan0nChl_8NJyv9x9u-302" value="&lt;font style=&quot;font-size: 50px;&quot;&gt;Register page&lt;/font&gt;" style="text;html=1;strokeColor=none;fillColor=none;align=center;verticalAlign=middle;whiteSpace=wrap;rounded=0;" vertex="1" parent="1">
          <mxGeometry x="-744" y="2090" width="594.5" height="80" as="geometry" />
        </mxCell>
        <mxCell id="mFvan0nChl_8NJyv9x9u-303" value="&lt;font style=&quot;font-size: 50px;&quot;&gt;Product page&lt;/font&gt;" style="text;html=1;strokeColor=none;fillColor=none;align=center;verticalAlign=middle;whiteSpace=wrap;rounded=0;" vertex="1" parent="1">
          <mxGeometry x="128.25" y="2090" width="594.5" height="80" as="geometry" />
        </mxCell>
        <mxCell id="mFvan0nChl_8NJyv9x9u-304" value="&lt;font style=&quot;font-size: 50px;&quot;&gt;Product page&lt;/font&gt;" style="text;html=1;strokeColor=none;fillColor=none;align=center;verticalAlign=middle;whiteSpace=wrap;rounded=0;" vertex="1" parent="1">
          <mxGeometry x="94.75" y="630" width="594.5" height="80" as="geometry" />
        </mxCell>
      </root>
    </mxGraphModel>
  </diagram>
</mxfile>
